# Aaflato
176.56.236.175
168.235.81.167


# AdGuard
94.140.14.14
94.140.14.15
94.140.15.15
94.140.15.16


# Alekberg
51.15.124.208
104.168.247.138
45.153.187.96


# AliDNS
223.5.5.5
223.6.6.6


# Andrews & Arnold
217.169.20.22
217.169.20.23


# Association 42l
185.216.27.142


# AT&T
13.89.120.251
40.76.112.230
68.94.156.1
68.94.157.1


# BlahDNS
95.216.212.177
45.32.55.94
159.69.198.101
139.180.141.57


# Brahma World
134.209.146.16


# Captnemo
139.59.48.222


# Canadian Shield
149.112.121.10
149.112.122.10
149.112.121.20
149.112.122.20
149.112.122.30
149.112.121.30


# Cisco
146.112.41.2
146.112.41.3


# Clean Browsing
185.228.168.168
185.228.168.10
185.228.168.9


# Cloudflare
1.1.1.1
1.0.0.1
104.16.248.249
104.16.249.249
104.18.2.55
104.18.3.55
104.18.27.128
104.18.26.128


# Comcast
96.113.151.149


# Comodo
8.26.56.26
8.20.247.20


# Commons-host
178.79.156.39


# ContainerPI
45.77.180.10


# Crypto.sx
104.28.1.106
104.28.0.106


# Digitale Gesellschaft
185.95.218.43
185.95.218.42


# Doh.li
46.101.66.244


# DNScrypt (DoH)
167.114.220.125
149.56.228.45


# DNSforge
176.9.93.198


# DNS home
185.233.106.232
185.233.107.4


# DNS lify
185.235.81.1
185.235.81.2
185.235.81.3
185.235.81.4
185.235.81.5
185.235.81.6
173.245.58.126


# DNS Seby
45.76.113.31
139.99.222.72


# DNS.SB
104.31.90.138
104.31.91.138


# Dyn
216.146.35.35
216.146.36.36


# FFmuc
195.30.94.28


# Foundation for Applied Privacy
93.177.65.183


# GeekDNS
104.27.164.27
104.27.165.27
125.77.154.35
118.24.208.197
114.115.240.175
119.29.107.85

# Google
8.8.8.8
8.8.4.4

# Hostux
185.26.126.37


# Ibuki
35.198.2.76


# Ibksturm
83.77.85.7


# Jcdns
178.62.214.105


# Lelux
51.158.147.50


# LibreDNS
116.202.176.26
116.203.115.192


# Mrkaran
139.59.55.13


# NekomimiRouter
104.24.122.53
104.24.123.53


# Nixnet
198.251.90.114
198.251.90.89
209.141.34.95
199.195.251.84
104.244.78.231


# OpenDNS
208.67.222.222
208.67.220.220
208.67.222.123

# OSZC (PumpleX)
51.38.83.141


# Pi-DNS
88.198.91.187
95.216.181.228
45.67.219.208
185.213.26.187


# PowerDNS
136.144.215.158


# Quad9
9.9.9.9
9.9.9.10
9.9.9.11
149.112.112.112
149.112.112.9
149.112.112.10
149.112.112.11


# Quad101
210.17.9.228


# Rubyfish
115.159.131.230


# Switch
130.59.31.251
130.59.31.248


# Tiarap
174.138.29.175
104.18.44.204
104.18.45.204
172.104.93.80

# t53
80.156.145.201


# Xfinity (Comcast)
96.113.151.147
75.75.75.75
76.76.76.76


# Others
104.236.178.232
103.2.57.5
172.105.241.93
46.239.223.80
185.43.135.1
116.203.179.248
74.82.42.42
46.227.200.55
185.134.196.54
46.227.200.54
185.134.197.54
149.154.153.153


#Verizon
1.243.0.14
1.243.0.12
8.237.161.14
8.237.161.12
1.250.0.14
1.250.0.12
1.242.0.14
1.242.0.12
1.252.0.14
1.252.0.12
8.238.120.14
8.238.120.12
8.238.112.14
8.238.112.12
68.238.96.14
68.238.96.12
8.238.64.14
8.238.64.12
8.238.128.14
8.238.128.12
8.238.0.14
8.238.0.12
4.2.2.1
4.2.2.2
4.2.2.3
4.2.2.4
4.2.2.5

#Cox
68.105.28.16
68.105.29.16
174.68.248.77

# CenturyLink
205.171.3.66
205.171.202.166
205.171.3.26
205.171.2.26

# Alternate DNS
198.101.242.72
23.253.163.53

# BlockAid Public DNS (or PeerDNS)
205.204.88.60
178.21.23.150

# Censurfridns
91.239.100.100
89.233.43.71

# Christoph Hochstätter
209.59.210.167
85.214.117.11

# ClaraNet
212.82.225.7
212.82.226.212

# DNS.Watch
84.200.69.80
84.200.70.40

# DNSReactor
104.236.210.29
45.55.155.25

# FDN
80.67.169.12

# FoeBud
85.214.73.63

#FoolDNS
87.118.111.215
213.187.11.62

# FreeDNS
37.235.1.174
37.235.1.177

# Freenom World
80.80.80.80
80.80.81.81

# German Privacy Foundation e.V.
87.118.100.175
94.75.228.29
85.25.251.254
62.141.58.13

# GreenTeamDNS
81.218.119.11
209.88.198.133

# Level3
209.244.0.3
209.244.0.4

# Neustar DNS Advantage
156.154.70.1
156.154.71.1

# New Nations
5.45.96.220

#Norton DNS
198.153.192.1
198.153.194.1

#OpenNIC
58.6.115.42
58.6.115.43
119.31.230.42
200.252.98.162
217.79.186.148
81.89.98.6
78.159.101.37
203.167.220.153
82.229.244.191
216.87.84.211
66.244.95.20
207.192.69.155
72.14.189.120

#PowerNS
194.145.226.26
77.220.232.44

#SafeDNS
195.46.39.39
195.46.39.40

#SkyDNS
193.58.251.251

#SmartViper Public DNS
208.76.50.50
208.76.51.51

#ValiDOM
78.46.89.147
88.198.75.145

#Verisign
64.6.64.6
64.6.65.6

#Xiala.net
77.109.148.136
77.109.148.137

#Yandex.DNS
77.88.8.88
77.88.8.2

#puntCAT
109.69.8.51

#CleanBrowsing
185.228.168.9
185.228.169.9

#Alternate DNS
76.76.19.19
76.223.122.150
